Data analytics in exercise and sport
…
---

# Check the data

```r
gold_medal_comparison
```

```
## # A tibble: 358 x 9
##     Year City   Sport  Discipline    Athlete    Country Gender Event  Medal
##    <dbl> <chr>  <chr>  <chr>         <chr>      <chr>   <chr>  <chr>  <chr>
##  1  1998 Nagano Biath~ Biathlon      BJOERNDAL~ NOR     Men    10KM   Gold 
##  2  1998 Nagano Biath~ Biathlon      HANEVOLD,~ NOR     Men    20KM   Gold 
##  3  1998 Nagano Bobsl~ Bobsleigh     LUEDERS, ~ CAN     Men    Two-M~ Gold 
##  4  1998 Nagano Bobsl~ Bobsleigh     MACEACHER~ CAN     Men    Two-M~ Gold 
##  5  1998 Nagano Curli~ Curling       BETKER, J~ CAN     Women  Curli~ Gold 
##  6  1998 Nagano Curli~ Curling       FORD, Ati~ CAN     Women  Curli~ Gold 
##  7  1998 Nagano Curli~ Curling       GUDEREIT,~ CAN     Women  Curli~ Gold 
##  8  1998 Nagano Curli~ Curling       MCCUSKER,~ CAN     Women  Curli~ Gold 
##  9  1998 Nagano Curli~ Curling       SCHMIRLER~ CAN     Women  Curli~ Gold 
## 10  1998 Nagano Skati~ Short Track ~ BEDARD, E~ CAN     Men    5000M~ Gold 
## # ... with 348 more rows
```
…
---

# Wrangle the data

```r
gold_medal_comparison %>%
  select(unique_event_ID)
```

```
## # A tibble: 358 x 1
##    unique_event_ID                                           
##    <chr>                                                     
##  1 1998_Biathlon_Biathlon_NOR_Men_10KM                       
##  2 1998_Biathlon_Biathlon_NOR_Men_20KM                       
##  3 1998_Bobsleigh_Bobsleigh_CAN_Men_Two-Man                  
##  4 1998_Bobsleigh_Bobsleigh_CAN_Men_Two-Man                  
##  5 1998_Curling_Curling_CAN_Women_Curling                    
##  6 1998_Curling_Curling_CAN_Women_Curling                    
##  7 1998_Curling_Curling_CAN_Women_Curling                    
##  8 1998_Curling_Curling_CAN_Women_Curling                    
##  9 1998_Curling_Curling_CAN_Women_Curling                    
## 10 1998_Skating_Short Track Speed Skating_CAN_Men_5000M Relay
## # ... with 348 more rows
```

---

# Wrangle the data

```r
# Identify duplicates
gold_medal_comparison %>%
  mutate(duplicates = duplicated(unique_event_ID)) %>%
  select(unique_event_ID, duplicates)
```

```
## # A tibble: 358 x 2
##    unique_event_ID                                            duplicates
##    <chr>                                                      <lgl>     
##  1 1998_Biathlon_Biathlon_NOR_Men_10KM                        FALSE     
##  2 1998_Biathlon_Biathlon_NOR_Men_20KM                        FALSE     
##  3 1998_Bobsleigh_Bobsleigh_CAN_Men_Two-Man                   FALSE     
##  4 1998_Bobsleigh_Bobsleigh_CAN_Men_Two-Man                   TRUE      
##  5 1998_Curling_Curling_CAN_Women_Curling                     FALSE     
##  6 1998_Curling_Curling_CAN_Women_Curling                     TRUE      
##  7 1998_Curling_Curling_CAN_Women_Curling                     TRUE      
##  8 1998_Curling_Curling_CAN_Women_Curling                     TRUE      
##  9 1998_Curling_Curling_CAN_Women_Curling                     TRUE      
## 10 1998_Skating_Short Track Speed Skating_CAN_Men_5000M Relay FALSE     
## # ... with 348 more rows
```
---

# Wrangle the data

```r
# Remove duplicates from the data and
# remove temporary variables used to identify duplicates
gold_medal_comparison %>%
  mutate(duplicates = duplicated(unique_event_ID)) %>%
* filter(duplicates == FALSE) %>%
* select(-unique_event_ID, -duplicates)
```

```
## # A tibble: 105 x 9
##     Year City   Sport  Discipline    Athlete    Country Gender Event  Medal
##    <dbl> <chr>  <chr>  <chr>         <chr>      <chr>   <chr>  <chr>  <chr>
##  1  1998 Nagano Biath~ Biathlon      BJOERNDAL~ NOR     Men    10KM   Gold 
##  2  1998 Nagano Biath~ Biathlon      HANEVOLD,~ NOR     Men    20KM   Gold 
##  3  1998 Nagano Bobsl~ Bobsleigh     LUEDERS, ~ CAN     Men    Two-M~ Gold 
##  4  1998 Nagano Curli~ Curling       BETKER, J~ CAN     Women  Curli~ Gold 
##  5  1998 Nagano Skati~ Short Track ~ BEDARD, E~ CAN     Men    5000M~ Gold 
##  6  1998 Nagano Skati~ Short Track ~ PERREAULT~ CAN     Women  500M   Gold 
##  7  1998 Nagano Skati~ Speed skating SONDRAL, ~ NOR     Men    1500M  Gold 
##  8  1998 Nagano Skati~ Speed skating LEMAY DOA~ CAN     Women  500M   Gold 
##  9  1998 Nagano Skiing Alpine Skiing BURAAS, H~ NOR     Men    Slalom Gold 
## 10  1998 Nagano Skiing Cross Countr~ DAEHLIE, ~ NOR     Men    10KM ~ Gold 
## # ... with 95 more rows
```

---

# Wrangle the data

```r
gold_medal_comparison %>%
  select(Year, Sport, Country, Event)
```

```
## # A tibble: 358 x 4
##     Year Sport     Country Event      
##    <dbl> <chr>     <chr>   <chr>      
##  1  1998 Biathlon  NOR     10KM       
##  2  1998 Biathlon  NOR     20KM       
##  3  1998 Bobsleigh CAN     Two-Man    
##  4  1998 Bobsleigh CAN     Two-Man    
##  5  1998 Curling   CAN     Curling    
##  6  1998 Curling   CAN     Curling    
##  7  1998 Curling   CAN     Curling    
##  8  1998 Curling   CAN     Curling    
##  9  1998 Curling   CAN     Curling    
## 10  1998 Skating   CAN     5000M Relay
## # ... with 348 more rows
```
…
